12:37:37.908 [61] ERROR NHibernate.NonUniqueResultException - query did not return a unique result: 3
12:37:42.909 [54] ERROR NHibernate.NonUniqueResultException - query did not return a unique result: 3
12:37:47.907 [61] ERROR NHibernate.NonUniqueResultException - query did not return a unique result: 3
12:37:52.911 [61] ERROR NHibernate.NonUniqueResultException - query did not return a unique result: 3
12:37:57.915 [61] ERROR NHibernate.NonUniqueResultException - query did not return a unique result: 3
12:38:02.917 [61] ERROR NHibernate.NonUniqueResultException - query did not return a unique result: 3
12:38:07.914 [61] ERROR NHibernate.NonUniqueResultException - query did not return a unique result: 3
12:38:12.908 [23] ERROR NHibernate.NonUniqueResultException - query did not return a unique result: 3
12:38:17.906 [61] ERROR NHibernate.NonUniqueResultException - query did not return a unique result: 3
12:38:22.914 [61] ERROR NHibernate.NonUniqueResultException - query did not return a unique result: 3
12:38:27.917 [61] ERROR NHibernate.NonUniqueResultException - query did not return a unique result: 3
12:38:32.913 [61] ERROR NHibernate.NonUniqueResultException - query did not return a unique result: 3
12:38:37.907 [61] ERROR NHibernate.NonUniqueResultException - query did not return a unique result: 3
12:38:42.910 [61] ERROR NHibernate.NonUniqueResultException - query did not return a unique result: 3
12:38:47.914 [61] ERROR NHibernate.NonUniqueResultException - query did not return a unique result: 3
12:38:52.944 [61] ERROR NHibernate.NonUniqueResultException - query did not return a unique result: 3
12:38:57.910 [61] ERROR NHibernate.NonUniqueResultException - query did not return a unique result: 3
12:39:02.913 [61] ERROR NHibernate.NonUniqueResultException - query did not return a unique result: 3
12:39:07.905 [61] ERROR NHibernate.NonUniqueResultException - query did not return a unique result: 3
12:39:12.907 [61] ERROR NHibernate.NonUniqueResultException - query did not return a unique result: 3
12:39:17.919 [61] ERROR NHibernate.NonUniqueResultException - query did not return a unique result: 3
12:39:22.915 [61] ERROR NHibernate.NonUniqueResultException - query did not return a unique result: 3
12:39:27.923 [61] ERROR NHibernate.NonUniqueResultException - query did not return a unique result: 3
12:39:32.914 [53] ERROR NHibernate.NonUniqueResultException - query did not return a unique result: 3
12:39:37.914 [53] ERROR NHibernate.NonUniqueResultException - query did not return a unique result: 3
12:39:42.914 [67] ERROR NHibernate.NonUniqueResultException - query did not return a unique result: 3
12:39:47.912 [53] ERROR NHibernate.NonUniqueResultException - query did not return a unique result: 3
12:39:52.908 [53] ERROR NHibernate.NonUniqueResultException - query did not return a unique result: 3
12:39:57.908 [53] ERROR NHibernate.NonUniqueResultException - query did not return a unique result: 3
12:40:02.905 [53] ERROR NHibernate.NonUniqueResultException - query did not return a unique result: 3
12:40:07.919 [53] ERROR NHibernate.NonUniqueResultException - query did not return a unique result: 3
12:40:12.906 [53] ERROR NHibernate.NonUniqueResultException - query did not return a unique result: 3
12:40:17.915 [53] ERROR NHibernate.NonUniqueResultException - query did not return a unique result: 3
12:40:22.909 [53] ERROR NHibernate.NonUniqueResultException - query did not return a unique result: 3
12:40:27.906 [53] ERROR NHibernate.NonUniqueResultException - query did not return a unique result: 3
12:40:32.914 [53] ERROR NHibernate.NonUniqueResultException - query did not return a unique result: 3
12:40:37.929 [53] ERROR NHibernate.NonUniqueResultException - query did not return a unique result: 3
12:40:42.913 [68] ERROR NHibernate.NonUniqueResultException - query did not return a unique result: 3
12:40:47.913 [53] ERROR NHibernate.NonUniqueResultException - query did not return a unique result: 3
12:40:52.908 [53] ERROR NHibernate.NonUniqueResultException - query did not return a unique result: 3
12:40:57.929 [53] ERROR NHibernate.NonUniqueResultException - query did not return a unique result: 3
12:41:02.918 [53] ERROR NHibernate.NonUniqueResultException - query did not return a unique result: 3
12:41:07.909 [53] ERROR NHibernate.NonUniqueResultException - query did not return a unique result: 3
12:41:12.912 [53] ERROR NHibernate.NonUniqueResultException - query did not return a unique result: 3
12:41:17.904 [53] ERROR NHibernate.NonUniqueResultException - query did not return a unique result: 3
12:41:22.919 [53] ERROR NHibernate.NonUniqueResultException - query did not return a unique result: 3
12:41:27.942 [53] ERROR NHibernate.NonUniqueResultException - query did not return a unique result: 3
12:41:32.910 [53] ERROR NHibernate.NonUniqueResultException - query did not return a unique result: 3
12:41:37.953 [53] ERROR NHibernate.NonUniqueResultException - query did not return a unique result: 3
12:41:42.915 [59] ERROR NHibernate.NonUniqueResultException - query did not return a unique result: 3
12:41:47.905 [53] ERROR NHibernate.NonUniqueResultException - query did not return a unique result: 3
12:41:52.907 [53] ERROR NHibernate.NonUniqueResultException - query did not return a unique result: 3
12:41:57.910 [53] ERROR NHibernate.NonUniqueResultException - query did not return a unique result: 3
12:42:02.905 [53] ERROR NHibernate.NonUniqueResultException - query did not return a unique result: 3
12:42:07.908 [53] ERROR NHibernate.NonUniqueResultException - query did not return a unique result: 3
12:42:12.914 [70] ERROR NHibernate.NonUniqueResultException - query did not return a unique result: 3
12:42:17.911 [53] ERROR NHibernate.NonUniqueResultException - query did not return a unique result: 3
12:42:22.907 [53] ERROR NHibernate.NonUniqueResultException - query did not return a unique result: 3
12:42:27.920 [53] ERROR NHibernate.NonUniqueResultException - query did not return a unique result: 3
12:42:32.910 [53] ERROR NHibernate.NonUniqueResultException - query did not return a unique result: 3
12:42:37.914 [53] ERROR NHibernate.NonUniqueResultException - query did not return a unique result: 3
12:42:42.914 [46] ERROR NHibernate.NonUniqueResultException - query did not return a unique result: 3
12:42:47.927 [53] ERROR NHibernate.NonUniqueResultException - query did not return a unique result: 3
12:42:52.915 [53] ERROR NHibernate.NonUniqueResultException - query did not return a unique result: 3
12:42:57.906 [53] ERROR NHibernate.NonUniqueResultException - query did not return a unique result: 3
12:43:02.912 [53] ERROR NHibernate.NonUniqueResultException - query did not return a unique result: 3
12:43:07.905 [53] ERROR NHibernate.NonUniqueResultException - query did not return a unique result: 3
12:43:12.917 [69] ERROR NHibernate.NonUniqueResultException - query did not return a unique result: 3
12:43:17.904 [53] ERROR NHibernate.NonUniqueResultException - query did not return a unique result: 3
12:43:22.911 [53] ERROR NHibernate.NonUniqueResultException - query did not return a unique result: 3
12:43:27.932 [53] ERROR NHibernate.NonUniqueResultException - query did not return a unique result: 3
12:43:32.908 [53] ERROR NHibernate.NonUniqueResultException - query did not return a unique result: 3
12:43:37.907 [53] ERROR NHibernate.NonUniqueResultException - query did not return a unique result: 3
12:43:42.914 [71] ERROR NHibernate.NonUniqueResultException - query did not return a unique result: 3
12:43:47.940 [53] ERROR NHibernate.NonUniqueResultException - query did not return a unique result: 3
12:43:52.916 [53] ERROR NHibernate.NonUniqueResultException - query did not return a unique result: 3
12:43:57.911 [53] ERROR NHibernate.NonUniqueResultException - query did not return a unique result: 3
12:44:02.911 [53] ERROR NHibernate.NonUniqueResultException - query did not return a unique result: 3
12:44:07.909 [53] ERROR NHibernate.NonUniqueResultException - query did not return a unique result: 3
12:44:12.914 [72] ERROR NHibernate.NonUniqueResultException - query did not return a unique result: 3
12:44:17.914 [53] ERROR NHibernate.NonUniqueResultException - query did not return a unique result: 3
12:44:22.915 [53] ERROR NHibernate.NonUniqueResultException - query did not return a unique result: 3
12:44:27.938 [53] ERROR NHibernate.NonUniqueResultException - query did not return a unique result: 3
12:44:32.941 [53] ERROR NHibernate.NonUniqueResultException - query did not return a unique result: 3
12:44:37.907 [53] ERROR NHibernate.NonUniqueResultException - query did not return a unique result: 3
12:44:42.916 [71] ERROR NHibernate.NonUniqueResultException - query did not return a unique result: 3
12:44:47.910 [51] ERROR NHibernate.NonUniqueResultException - query did not return a unique result: 3
12:44:52.907 [51] ERROR NHibernate.NonUniqueResultException - query did not return a unique result: 3
12:44:57.916 [51] ERROR NHibernate.NonUniqueResultException - query did not return a unique result: 3
12:45:02.922 [51] ERROR NHibernate.NonUniqueResultException - query did not return a unique result: 3
12:45:07.908 [51] ERROR NHibernate.NonUniqueResultException - query did not return a unique result: 3
12:45:12.906 [73] ERROR NHibernate.NonUniqueResultException - query did not return a unique result: 3
12:45:17.917 [51] ERROR NHibernate.NonUniqueResultException - query did not return a unique result: 3
12:45:22.906 [51] ERROR NHibernate.NonUniqueResultException - query did not return a unique result: 3
12:45:27.912 [51] ERROR NHibernate.NonUniqueResultException - query did not return a unique result: 3
12:45:32.913 [51] ERROR NHibernate.NonUniqueResultException - query did not return a unique result: 3
12:45:37.911 [51] ERROR NHibernate.NonUniqueResultException - query did not return a unique result: 3
12:45:42.915 [75] ERROR NHibernate.NonUniqueResultException - query did not return a unique result: 3
12:45:47.907 [51] ERROR NHibernate.NonUniqueResultException - query did not return a unique result: 3
12:45:52.906 [51] ERROR NHibernate.NonUniqueResultException - query did not return a unique result: 3
12:45:57.906 [51] ERROR NHibernate.NonUniqueResultException - query did not return a unique result: 3
12:46:02.952 [51] ERROR NHibernate.NonUniqueResultException - query did not return a unique result: 3
12:46:07.914 [51] ERROR NHibernate.NonUniqueResultException - query did not return a unique result: 3
12:46:12.911 [69] ERROR NHibernate.NonUniqueResultException - query did not return a unique result: 3
12:46:17.916 [51] ERROR NHibernate.NonUniqueResultException - query did not return a unique result: 3
12:46:22.909 [51] ERROR NHibernate.NonUniqueResultException - query did not return a unique result: 3
12:46:27.908 [51] ERROR NHibernate.NonUniqueResultException - query did not return a unique result: 3
12:46:32.909 [51] ERROR NHibernate.NonUniqueResultException - query did not return a unique result: 3
12:46:37.915 [51] ERROR NHibernate.NonUniqueResultException - query did not return a unique result: 3
12:46:42.909 [51] ERROR NHibernate.NonUniqueResultException - query did not return a unique result: 3
12:46:47.905 [51] ERROR NHibernate.NonUniqueResultException - query did not return a unique result: 3
12:46:52.908 [51] ERROR NHibernate.NonUniqueResultException - query did not return a unique result: 3
12:46:57.918 [51] ERROR NHibernate.NonUniqueResultException - query did not return a unique result: 3
12:47:02.917 [51] ERROR NHibernate.NonUniqueResultException - query did not return a unique result: 3
12:47:07.916 [51] ERROR NHibernate.NonUniqueResultException - query did not return a unique result: 3
12:47:12.924 [51] ERROR NHibernate.NonUniqueResultException - query did not return a unique result: 3
12:47:17.911 [51] ERROR NHibernate.NonUniqueResultException - query did not return a unique result: 3
12:47:22.905 [51] ERROR NHibernate.NonUniqueResultException - query did not return a unique result: 3
12:47:27.928 [51] ERROR NHibernate.NonUniqueResultException - query did not return a unique result: 3
12:47:32.907 [51] ERROR NHibernate.NonUniqueResultException - query did not return a unique result: 3
12:47:37.907 [51] ERROR NHibernate.NonUniqueResultException - query did not return a unique result: 3
12:47:42.908 [51] ERROR NHibernate.NonUniqueResultException - query did not return a unique result: 3
12:47:47.909 [51] ERROR NHibernate.NonUniqueResultException - query did not return a unique result: 3
12:47:52.910 [51] ERROR NHibernate.NonUniqueResultException - query did not return a unique result: 3
12:47:57.912 [51] ERROR NHibernate.NonUniqueResultException - query did not return a unique result: 3
12:48:02.907 [51] ERROR NHibernate.NonUniqueResultException - query did not return a unique result: 3
12:48:07.903 [51] ERROR NHibernate.NonUniqueResultException - query did not return a unique result: 3
12:48:12.913 [73] ERROR NHibernate.NonUniqueResultException - query did not return a unique result: 3
12:48:17.918 [51] ERROR NHibernate.NonUniqueResultException - query did not return a unique result: 3
12:48:22.907 [51] ERROR NHibernate.NonUniqueResultException - query did not return a unique result: 3
12:48:27.913 [51] ERROR NHibernate.NonUniqueResultException - query did not return a unique result: 3
12:48:32.912 [51] ERROR NHibernate.NonUniqueResultException - query did not return a unique result: 3
12:48:37.911 [51] ERROR NHibernate.NonUniqueResultException - query did not return a unique result: 3
12:48:42.913 [51] ERROR NHibernate.NonUniqueResultException - query did not return a unique result: 3
12:48:47.909 [51] ERROR NHibernate.NonUniqueResultException - query did not return a unique result: 3
12:48:52.912 [51] ERROR NHibernate.NonUniqueResultException - query did not return a unique result: 3
12:48:57.911 [51] ERROR NHibernate.NonUniqueResultException - query did not return a unique result: 3
12:49:02.907 [51] ERROR NHibernate.NonUniqueResultException - query did not return a unique result: 3
12:49:07.905 [51] ERROR NHibernate.NonUniqueResultException - query did not return a unique result: 3
12:49:12.907 [51] ERROR NHibernate.NonUniqueResultException - query did not return a unique result: 3
12:49:17.910 [51] ERROR NHibernate.NonUniqueResultException - query did not return a unique result: 3
12:49:22.911 [51] ERROR NHibernate.NonUniqueResultException - query did not return a unique result: 3
12:49:27.911 [51] ERROR NHibernate.NonUniqueResultException - query did not return a unique result: 3
12:49:32.910 [51] ERROR NHibernate.NonUniqueResultException - query did not return a unique result: 3
12:49:37.908 [51] ERROR NHibernate.NonUniqueResultException - query did not return a unique result: 3
12:49:42.908 [51] ERROR NHibernate.NonUniqueResultException - query did not return a unique result: 3
12:49:47.909 [51] ERROR NHibernate.NonUniqueResultException - query did not return a unique result: 3
12:49:52.909 [51] ERROR NHibernate.NonUniqueResultException - query did not return a unique result: 3
12:49:57.909 [51] ERROR NHibernate.NonUniqueResultException - query did not return a unique result: 3
12:50:02.905 [51] ERROR NHibernate.NonUniqueResultException - query did not return a unique result: 3
12:50:07.913 [74] ERROR NHibernate.NonUniqueResultException - query did not return a unique result: 3
12:50:12.915 [77] ERROR NHibernate.NonUniqueResultException - query did not return a unique result: 3
12:50:17.953 [74] ERROR NHibernate.NonUniqueResultException - query did not return a unique result: 3
12:50:22.907 [74] ERROR NHibernate.NonUniqueResultException - query did not return a unique result: 3
12:50:27.914 [74] ERROR NHibernate.NonUniqueResultException - query did not return a unique result: 3
12:50:32.912 [74] ERROR NHibernate.NonUniqueResultException - query did not return a unique result: 3
12:50:37.908 [74] ERROR NHibernate.NonUniqueResultException - query did not return a unique result: 3
12:50:42.905 [74] ERROR NHibernate.NonUniqueResultException - query did not return a unique result: 3
12:50:47.911 [74] ERROR NHibernate.NonUniqueResultException - query did not return a unique result: 3
12:50:52.914 [74] ERROR NHibernate.NonUniqueResultException - query did not return a unique result: 3
12:50:57.905 [74] ERROR NHibernate.NonUniqueResultException - query did not return a unique result: 3
12:51:02.909 [74] ERROR NHibernate.NonUniqueResultException - query did not return a unique result: 3
12:51:07.905 [74] ERROR NHibernate.NonUniqueResultException - query did not return a unique result: 3
12:51:12.910 [74] ERROR NHibernate.NonUniqueResultException - query did not return a unique result: 3
12:51:17.910 [74] ERROR NHibernate.NonUniqueResultException - query did not return a unique result: 3
12:51:22.913 [74] ERROR NHibernate.NonUniqueResultException - query did not return a unique result: 3
12:51:27.917 [74] ERROR NHibernate.NonUniqueResultException - query did not return a unique result: 3
12:51:32.913 [74] ERROR NHibernate.NonUniqueResultException - query did not return a unique result: 3
12:51:37.923 [74] ERROR NHibernate.NonUniqueResultException - query did not return a unique result: 3
12:51:42.908 [74] ERROR NHibernate.NonUniqueResultException - query did not return a unique result: 3
12:51:47.910 [74] ERROR NHibernate.NonUniqueResultException - query did not return a unique result: 3
12:51:52.912 [74] ERROR NHibernate.NonUniqueResultException - query did not return a unique result: 3
12:51:57.914 [74] ERROR NHibernate.NonUniqueResultException - query did not return a unique result: 3
12:52:02.908 [74] ERROR NHibernate.NonUniqueResultException - query did not return a unique result: 3
12:52:07.907 [74] ERROR NHibernate.NonUniqueResultException - query did not return a unique result: 3
12:52:12.918 [77] ERROR NHibernate.NonUniqueResultException - query did not return a unique result: 3
12:52:17.908 [74] ERROR NHibernate.NonUniqueResultException - query did not return a unique result: 3
12:52:22.907 [74] ERROR NHibernate.NonUniqueResultException - query did not return a unique result: 3
12:52:27.919 [74] ERROR NHibernate.NonUniqueResultException - query did not return a unique result: 3
12:52:32.912 [74] ERROR NHibernate.NonUniqueResultException - query did not return a unique result: 3
12:52:37.949 [74] ERROR NHibernate.NonUniqueResultException - query did not return a unique result: 3
12:52:42.913 [74] ERROR NHibernate.NonUniqueResultException - query did not return a unique result: 3
12:52:47.904 [76] ERROR NHibernate.NonUniqueResultException - query did not return a unique result: 3
12:52:52.905 [76] ERROR NHibernate.NonUniqueResultException - query did not return a unique result: 3
12:52:57.907 [76] ERROR NHibernate.NonUniqueResultException - query did not return a unique result: 3
12:53:02.916 [76] ERROR NHibernate.NonUniqueResultException - query did not return a unique result: 3
12:53:07.910 [76] ERROR NHibernate.NonUniqueResultException - query did not return a unique result: 3
12:53:12.909 [76] ERROR NHibernate.NonUniqueResultException - query did not return a unique result: 3
12:53:17.912 [76] ERROR NHibernate.NonUniqueResultException - query did not return a unique result: 3
12:53:22.911 [76] ERROR NHibernate.NonUniqueResultException - query did not return a unique result: 3
12:53:27.918 [76] ERROR NHibernate.NonUniqueResultException - query did not return a unique result: 3
12:53:32.909 [76] ERROR NHibernate.NonUniqueResultException - query did not return a unique result: 3
12:53:37.910 [76] ERROR NHibernate.NonUniqueResultException - query did not return a unique result: 3
12:53:42.919 [76] ERROR NHibernate.NonUniqueResultException - query did not return a unique result: 3
12:53:47.915 [76] ERROR NHibernate.NonUniqueResultException - query did not return a unique result: 3
12:53:52.907 [76] ERROR NHibernate.NonUniqueResultException - query did not return a unique result: 3
12:53:57.908 [76] ERROR NHibernate.NonUniqueResultException - query did not return a unique result: 3
12:54:02.908 [76] ERROR NHibernate.NonUniqueResultException - query did not return a unique result: 3
12:54:07.906 [76] ERROR NHibernate.NonUniqueResultException - query did not return a unique result: 3
12:54:12.908 [81] ERROR NHibernate.NonUniqueResultException - query did not return a unique result: 3
12:54:17.911 [76] ERROR NHibernate.NonUniqueResultException - query did not return a unique result: 3
12:54:22.907 [76] ERROR NHibernate.NonUniqueResultException - query did not return a unique result: 3
12:54:27.906 [76] ERROR NHibernate.NonUniqueResultException - query did not return a unique result: 3
12:54:32.904 [76] ERROR NHibernate.NonUniqueResultException - query did not return a unique result: 3
12:54:37.908 [76] ERROR NHibernate.NonUniqueResultException - query did not return a unique result: 3
12:54:42.910 [76] ERROR NHibernate.NonUniqueResultException - query did not return a unique result: 3
12:54:47.904 [76] ERROR NHibernate.NonUniqueResultException - query did not return a unique result: 3
12:54:52.916 [76] ERROR NHibernate.NonUniqueResultException - query did not return a unique result: 3
12:54:57.919 [76] ERROR NHibernate.NonUniqueResultException - query did not return a unique result: 3
12:55:02.910 [76] ERROR NHibernate.NonUniqueResultException - query did not return a unique result: 3
12:55:07.912 [76] ERROR NHibernate.NonUniqueResultException - query did not return a unique result: 3
12:55:12.907 [76] ERROR NHibernate.NonUniqueResultException - query did not return a unique result: 3
12:55:17.908 [78] ERROR NHibernate.NonUniqueResultException - query did not return a unique result: 3
12:55:22.907 [78] ERROR NHibernate.NonUniqueResultException - query did not return a unique result: 3
12:55:27.916 [78] ERROR NHibernate.NonUniqueResultException - query did not return a unique result: 3
12:55:32.912 [78] ERROR NHibernate.NonUniqueResultException - query did not return a unique result: 3
12:55:37.916 [78] ERROR NHibernate.NonUniqueResultException - query did not return a unique result: 3
12:55:42.907 [78] ERROR NHibernate.NonUniqueResultException - query did not return a unique result: 3
12:55:47.911 [78] ERROR NHibernate.NonUniqueResultException - query did not return a unique result: 3
12:55:52.908 [78] ERROR NHibernate.NonUniqueResultException - query did not return a unique result: 3
12:55:57.968 [78] ERROR NHibernate.NonUniqueResultException - query did not return a unique result: 3
12:56:02.916 [78] ERROR NHibernate.NonUniqueResultException - query did not return a unique result: 3
12:56:07.907 [78] ERROR NHibernate.NonUniqueResultException - query did not return a unique result: 3
14:50:29.807 [6] ERROR NHibernate.NonUniqueResultException - query did not return a unique result: 3
14:50:29.807 [7] ERROR NHibernate.NonUniqueResultException - query did not return a unique result: 3
14:50:29.807 [8] ERROR NHibernate.NonUniqueResultException - query did not return a unique result: 3
14:50:31.602 [6] ERROR NHibernate.NonUniqueResultException - query did not return a unique result: 3
14:50:36.614 [8] ERROR NHibernate.NonUniqueResultException - query did not return a unique result: 3
14:50:41.614 [8] ERROR NHibernate.NonUniqueResultException - query did not return a unique result: 3
14:50:46.609 [7] ERROR NHibernate.NonUniqueResultException - query did not return a unique result: 3
14:50:51.603 [6] ERROR NHibernate.NonUniqueResultException - query did not return a unique result: 3
14:50:56.607 [8] ERROR NHibernate.NonUniqueResultException - query did not return a unique result: 3
14:51:01.603 [6] ERROR NHibernate.NonUniqueResultException - query did not return a unique result: 3
14:51:06.603 [7] ERROR NHibernate.NonUniqueResultException - query did not return a unique result: 3
14:51:11.602 [8] ERROR NHibernate.NonUniqueResultException - query did not return a unique result: 3
14:51:16.605 [8] ERROR NHibernate.NonUniqueResultException - query did not return a unique result: 3
14:51:21.612 [6] ERROR NHibernate.NonUniqueResultException - query did not return a unique result: 3
14:51:26.613 [6] ERROR NHibernate.NonUniqueResultException - query did not return a unique result: 3
14:51:31.605 [6] ERROR NHibernate.NonUniqueResultException - query did not return a unique result: 3
14:51:36.601 [7] ERROR NHibernate.NonUniqueResultException - query did not return a unique result: 3
14:51:41.603 [8] ERROR NHibernate.NonUniqueResultException - query did not return a unique result: 3
14:51:46.643 [7] ERROR NHibernate.NonUniqueResultException - query did not return a unique result: 3
14:51:51.611 [6] ERROR NHibernate.NonUniqueResultException - query did not return a unique result: 3
14:51:56.610 [6] ERROR NHibernate.NonUniqueResultException - query did not return a unique result: 3
14:52:01.610 [6] ERROR NHibernate.NonUniqueResultException - query did not return a unique result: 3
14:52:06.610 [7] ERROR NHibernate.NonUniqueResultException - query did not return a unique result: 3
14:52:11.604 [8] ERROR NHibernate.NonUniqueResultException - query did not return a unique result: 3
14:52:16.606 [7] ERROR NHibernate.NonUniqueResultException - query did not return a unique result: 3
14:52:21.603 [6] ERROR NHibernate.NonUniqueResultException - query did not return a unique result: 3
14:52:26.609 [19] ERROR NHibernate.NonUniqueResultException - query did not return a unique result: 3
14:52:31.602 [6] ERROR NHibernate.NonUniqueResultException - query did not return a unique result: 3
14:52:36.603 [8] ERROR NHibernate.NonUniqueResultException - query did not return a unique result: 3
14:52:41.604 [8] ERROR NHibernate.NonUniqueResultException - query did not return a unique result: 3
14:52:46.605 [7] ERROR NHibernate.NonUniqueResultException - query did not return a unique result: 3
14:53:38.026 [6] ERROR NHibernate.NonUniqueResultException - query did not return a unique result: 3
14:53:59.365 [8] ERROR NHibernate.NonUniqueResultException - query did not return a unique result: 3
14:53:59.366 [7] ERROR NHibernate.NonUniqueResultException - query did not return a unique result: 3
14:59:22.743 [7] ERROR NHibernate.NonUniqueResultException - query did not return a unique result: 3
15:00:02.467 [6] ERROR NHibernate.NonUniqueResultException - query did not return a unique result: 3
15:05:43.656 [8] WARN  NHibernate.Util.ADOExceptionReporter - System.Data.SqlClient.SqlException (0x80131904): String or binary data would be truncated.
The statement has been terminated.
   at System.Data.SqlClient.SqlConnection.OnError(SqlException exception, Boolean breakConnection, Action`1 wrapCloseInAction)
   at System.Data.SqlClient.SqlInternalConnection.OnError(SqlException exception, Boolean breakConnection, Action`1 wrapCloseInAction)
   at System.Data.SqlClient.TdsParser.ThrowExceptionAndWarning(TdsParserStateObject stateObj, Boolean callerHasConnectionLock, Boolean asyncClose)
   at System.Data.SqlClient.TdsParser.TryRun(RunBehavior runBehavior, SqlCommand cmdHandler, SqlDataReader dataStream, BulkCopySimpleResultSet bulkCopyHandler, TdsParserStateObject stateObj, Boolean& dataReady)
   at System.Data.SqlClient.SqlCommand.FinishExecuteReader(SqlDataReader ds, RunBehavior runBehavior, String resetOptionsString, Boolean isInternal, Boolean forDescribeParameterEncryption, Boolean shouldCacheForAlwaysEncrypted)
   at System.Data.SqlClient.SqlCommand.RunExecuteReaderTds(CommandBehavior cmdBehavior, RunBehavior runBehavior, Boolean returnStream, Boolean async, Int32 timeout, Task& task, Boolean asyncWrite, Boolean inRetry, SqlDataReader ds, Boolean describeParameterEncryptionRequest)
   at System.Data.SqlClient.SqlCommand.RunExecuteReader(CommandBehavior cmdBehavior, RunBehavior runBehavior, Boolean returnStream, String method, TaskCompletionSource`1 completion, Int32 timeout, Task& task, Boolean& usedCache, Boolean asyncWrite, Boolean inRetry)
   at System.Data.SqlClient.SqlCommand.InternalExecuteNonQuery(TaskCompletionSource`1 completion, String methodName, Boolean sendToPipe, Int32 timeout, Boolean& usedCache, Boolean asyncWrite, Boolean inRetry)
   at System.Data.SqlClient.SqlCommand.ExecuteNonQuery()
   at System.Data.SqlClient.SqlCommand.ExecuteBatchRPCCommand()
   at System.Data.SqlClient.SqlCommandSet.ExecuteNonQuery()
   at NHibernate.AdoNet.SqlClientSqlCommandSet.ExecuteNonQuery()
   at NHibernate.AdoNet.SqlClientBatchingBatcher.DoExecuteBatch(IDbCommand ps)
ClientConnectionId:d016a4d9-efdb-4db9-8965-d43fb4479bca
Error Number:8152,State:30,Class:16
15:05:43.661 [8] ERROR NHibernate.Util.ADOExceptionReporter - String or binary data would be truncated.
The statement has been terminated.
15:05:43.676 [8] ERROR NHibernate.Event.Default.AbstractFlushingEventListener - Could not synchronize database state with session
NHibernate.Exceptions.GenericADOException: could not execute batch command.[SQL: SQL not available] ---> System.Data.SqlClient.SqlException: String or binary data would be truncated.
The statement has been terminated.
   at System.Data.SqlClient.SqlConnection.OnError(SqlException exception, Boolean breakConnection, Action`1 wrapCloseInAction)
   at System.Data.SqlClient.SqlInternalConnection.OnError(SqlException exception, Boolean breakConnection, Action`1 wrapCloseInAction)
   at System.Data.SqlClient.TdsParser.ThrowExceptionAndWarning(TdsParserStateObject stateObj, Boolean callerHasConnectionLock, Boolean asyncClose)
   at System.Data.SqlClient.TdsParser.TryRun(RunBehavior runBehavior, SqlCommand cmdHandler, SqlDataReader dataStream, BulkCopySimpleResultSet bulkCopyHandler, TdsParserStateObject stateObj, Boolean& dataReady)
   at System.Data.SqlClient.SqlCommand.FinishExecuteReader(SqlDataReader ds, RunBehavior runBehavior, String resetOptionsString, Boolean isInternal, Boolean forDescribeParameterEncryption, Boolean shouldCacheForAlwaysEncrypted)
   at System.Data.SqlClient.SqlCommand.RunExecuteReaderTds(CommandBehavior cmdBehavior, RunBehavior runBehavior, Boolean returnStream, Boolean async, Int32 timeout, Task& task, Boolean asyncWrite, Boolean inRetry, SqlDataReader ds, Boolean describeParameterEncryptionRequest)
   at System.Data.SqlClient.SqlCommand.RunExecuteReader(CommandBehavior cmdBehavior, RunBehavior runBehavior, Boolean returnStream, String method, TaskCompletionSource`1 completion, Int32 timeout, Task& task, Boolean& usedCache, Boolean asyncWrite, Boolean inRetry)
   at System.Data.SqlClient.SqlCommand.InternalExecuteNonQuery(TaskCompletionSource`1 completion, String methodName, Boolean sendToPipe, Int32 timeout, Boolean& usedCache, Boolean asyncWrite, Boolean inRetry)
   at System.Data.SqlClient.SqlCommand.ExecuteNonQuery()
   at System.Data.SqlClient.SqlCommand.ExecuteBatchRPCCommand()
   at System.Data.SqlClient.SqlCommandSet.ExecuteNonQuery()
   at NHibernate.AdoNet.SqlClientSqlCommandSet.ExecuteNonQuery()
   at NHibernate.AdoNet.SqlClientBatchingBatcher.DoExecuteBatch(IDbCommand ps)
   --- End of inner exception stack trace ---
   at NHibernate.AdoNet.SqlClientBatchingBatcher.DoExecuteBatch(IDbCommand ps)
   at NHibernate.AdoNet.AbstractBatcher.ExecuteBatchWithTiming(IDbCommand ps)
   at NHibernate.AdoNet.AbstractBatcher.ExecuteBatch()
   at NHibernate.Engine.ActionQueue.ExecuteActions(IList list)
   at NHibernate.Engine.ActionQueue.ExecuteActions()
   at NHibernate.Event.Default.AbstractFlushingEventListener.PerformExecutions(IEventSource session)
15:09:34.199 [6] ERROR NHibernate.NonUniqueResultException - query did not return a unique result: 2
